-------------------------------------------------------------------------------
Test set: br.com.enade.model.TbusuarioTest
-------------------------------------------------------------------------------
Tests run: 3, Failures: 0, Errors: 0, Skipped: 0, Time elapsed: 0.365 s - in br.com.enade.model.TbusuarioTest
