br\com\enade\bean\ResultadoBean.class
br\com\enade\model\Tbquestao.class
br\com\enade\model\Tbtipoquestao.class
br\com\enade\bean\RelatorioBean.class
br\com\enade\dao\TipoQuestaoDao.class
br\com\enade\bean\ProvaBean.class
br\com\enade\util\JPAUtil.class
br\com\enade\util\LogPhaseListener.class
br\com\enade\util\JsfUtil.class
br\com\enade\dao\QuestaoDao.class
br\com\enade\tx\Transacional.class
br\com\enade\dao\DAO.class
br\com\enade\model\Tbprova.class
br\com\enade\model\Tbtipousuario.class
br\com\enade\model\Tbresultado.class
br\com\enade\dao\ProvaDao.class
br\com\enade\dao\UsuarioDao.class
br\com\enade\tx\GerenciadorDeTransacao.class
br\com\enade\util\Autorizador.class
br\com\enade\bean\DashboardBean.class
br\com\enade\bean\LoginBean.class
br\com\enade\model\Tbusuario.class
br\com\enade\dao\ResultadoDao.class
br\com\enade\bean\UsuarioBean.class
br\com\enade\bean\QuestaoBean.class
br\com\enade\util\Relatorio.class
br\com\enade\dao\TipoUsuarioDao.class
